0.059381,6.945377358490566e-05
0.27588,3.21943396226415e-05
1.2646,1.7067924528301888e-05
5.9688,1.0074056603773586e-05
27.409,7.080377358490566e-06
69.214,6.0543396226415094e-06
92.04,5.811415094339623e-06
127.76,5.615283018867925e-06
630.7,4.635754716981132e-06
